{
	"type": "Collection",
	"properties": {
		"nameOfPoint": {
			"name": "nameOfPoint",
			"type": "string",
			"typeLabel": "string",
			"required": true,
			"id": "nameOfPoint",
			"order": 0
		},
		"position": {
			"name": "position",
			"type": "number",
			"typeLabel": "number",
			"required": true,
			"id": "position",
			"order": 1
		},
		"content": {
			"name": "content",
			"type": "string",
			"typeLabel": "string",
			"required": true,
			"id": "content",
			"order": 2
		}
	}
}